[
	{
		"model": "documentation.document",
    "pk": 1,
    "fields": {
      "author": 2,
			"title": "Welcome",
			"description": 14,
			"visit_count": 1500007,
			"privacy_setting": 0,
			"tags": [1, 2, 5]
    }
	},
	{
		"model": "documentation.document",
    "pk": 2,
    "fields": {
      "author": 2,
			"title": "Sceneries",
			"description": 15,
			"visit_count": 37000023,
			"privacy_setting": 0,
			"tags": [2, 3]
    }
	}
]
